…
```r
deserts %>%
  count(species) %>%
  arrange(desc(n))
```

```
## # A tibble: 40 x 2
##    species          n
##    <chr>        <int>
##  1 merriami     10596
##  2 penicillatus  3123
##  3 ordii         3027
##  4 baileyi       2891
##  5 megalotis     2609
##  6 spectabilis   2504
##  7 torridus      2249
##  8 flavus        1597
##  9 eremicus      1299
## 10 albigula      1252
## # ... with 30 more rows
```
…
5. What is the range of weight for each species included in the study? Remove any observations of weight that are NA so they do not show up in the plot.

```r
deserts %>%
  group_by(species) %>%
  filter(weight!="NA") %>%
  summarize(min_weight = min(weight, na.rm = T),
            max_weight = max(weight, na.rm = T))
```

```
## # A tibble: 22 x 3
##    species     min_weight max_weight
##    <chr>            <dbl>      <dbl>
##  1 albigula            30        280
##  2 baileyi             12         55
##  3 eremicus             8         40
##  4 flavus               4         25
##  5 fulvescens           9         20
##  6 fulviventer         24        199
##  7 hispidus            16        140
##  8 intermedius         17         21
##  9 leucogaster         10         56
## 10 leucopus             8         27
## # ... with 12 more rows
```
…
```r
deserts %>%
  filter(species=="merriami") %>%
  group_by(year) %>%
  summarize(n_observations = n())
```

```
## # A tibble: 26 x 2
##     year n_observations
##  * <dbl>          <int>
##  1  1977            264
##  2  1978            389
##  3  1979            209
##  4  1980            493
##  5  1981            559
##  6  1982            609
##  7  1983            528
##  8  1984            396
##  9  1985            667
## 10  1986            406
## # ... with 16 more rows
```
…
9. Which two species have, on average, the highest weight? Once you have identified them, make a new column that is a ratio of `weight` to `hindfoot_length`. Make a plot that shows the range of this new ratio and fill by sex.
**On average, albigula and spectabilis have the highest weights.** 

```r
deserts %>%
  filter(weight!="NA") %>%
  group_by(species) %>%
  summarize(mean_weight = mean(weight)) %>%
  arrange(desc(mean_weight))
```

```
## # A tibble: 22 x 2
##    species      mean_weight
##    <chr>              <dbl>
##  1 albigula           159. 
##  2 spectabilis        120. 
##  3 spilosoma           93.5
##  4 hispidus            65.6
##  5 fulviventer         58.9
##  6 ochrognathus        55.4
##  7 ordii               48.9
##  8 merriami            43.2
##  9 baileyi             31.7
## 10 leucogaster         31.6
## # ... with 12 more rows
```

```r
deserts %>%
  filter(weight!="NA" & hindfoot_length!="NA" & sex!="NA") %>%
  select(species, sex, weight, hindfoot_length) %>%
  filter(species=="albigula" | species=="spectabilis") %>%
  mutate(weight_hindfoot_ratio = weight/hindfoot_length)
```

```
## # A tibble: 3,068 x 5
##    species     sex   weight hindfoot_length weight_hindfoot_ratio
##    <chr>       <chr>  <dbl>           <dbl>                 <dbl>
##  1 spectabilis F        117              50                  2.34
##  2 spectabilis F        121              51                  2.37
##  3 spectabilis M        115              51                  2.25
##  4 spectabilis F        120              48                  2.5 
##  5 spectabilis F        118              48                  2.46
##  6 spectabilis F        126              52                  2.42
##  7 spectabilis M        132              50                  2.64
##  8 spectabilis F        122              53                  2.30
##  9 spectabilis F        107              48                  2.23
## 10 spectabilis F        115              50                  2.3 
## # ... with 3,058 more rows
```
…
