…
```r
structure(gapminder)
```

```
## # A tibble: 1,704 x 6
##    country     continent  year lifeExp      pop gdpPercap
##    <fct>       <fct>     <int>   <dbl>    <int>     <dbl>
##  1 Afghanistan Asia       1952    28.8  8425333      779.
##  2 Afghanistan Asia       1957    30.3  9240934      821.
##  3 Afghanistan Asia       1962    32.0 10267083      853.
##  4 Afghanistan Asia       1967    34.0 11537966      836.
##  5 Afghanistan Asia       1972    36.1 13079460      740.
##  6 Afghanistan Asia       1977    38.4 14880372      786.
##  7 Afghanistan Asia       1982    39.9 12881816      978.
##  8 Afghanistan Asia       1987    40.8 13867957      852.
##  9 Afghanistan Asia       1992    41.7 16317921      649.
## 10 Afghanistan Asia       1997    41.8 22227415      635.
## # ... with 1,694 more rows
```
…
**7. Which countries have had the largest population growth since 1952?**
**The top five countries with the greatest population growth are China, India, United States, Indonesia, and Brazil.**

```r
gapminder %>%
  filter(year>=1952) %>%
  group_by(country) %>%
  summarize(max_pop = max(pop),
            min_pop = min(pop)) %>%
  mutate(pop_growth = max_pop - min_pop) %>%
  arrange(desc(pop_growth))
```

```
## # A tibble: 142 x 4
##    country          max_pop   min_pop pop_growth
##    <fct>              <int>     <int>      <int>
##  1 China         1318683096 556263527  762419569
##  2 India         1110396331 372000000  738396331
##  3 United States  301139947 157553000  143586947
##  4 Indonesia      223547000  82052000  141495000
##  5 Brazil         190010647  56602560  133408087
##  6 Pakistan       169270617  41346560  127924057
##  7 Bangladesh     150448339  46886859  103561480
##  8 Nigeria        135031164  33119096  101912068
##  9 Mexico         108700891  30144317   78556574
## 10 Philippines     91077287  22438691   68638596
## # ... with 132 more rows
```
…
