…
## Data tidy
1. Some of the names used in the `superhero_info` data are problematic so you should rename them here.  

```r
superhero_info %>%
  rename(eye_color = "Eye color", hair_color = "Hair color", skin_color = "Skin color") %>%
  select_all(tolower) %>%
  mutate_all(tolower)
```

```
## # A tibble: 734 x 10
##    name  gender eye_color race  hair_color height publisher skin_color alignment
##    <chr> <chr>  <chr>     <chr> <chr>      <chr>  <chr>     <chr>      <chr>    
##  1 a-bo~ male   yellow    human no hair    203    marvel c~ <NA>       good     
##  2 abe ~ male   blue      icth~ no hair    191    dark hor~ blue       good     
##  3 abin~ male   blue      unga~ no hair    185    dc comics red        good     
##  4 abom~ male   green     huma~ no hair    203    marvel c~ <NA>       bad      
##  5 abra~ male   blue      cosm~ black      <NA>   marvel c~ <NA>       bad      
##  6 abso~ male   blue      human no hair    193    marvel c~ <NA>       bad      
##  7 adam~ male   blue      <NA>  blond      <NA>   nbc - he~ <NA>       good     
##  8 adam~ male   blue      human blond      185    dc comics <NA>       good     
##  9 agen~ female blue      <NA>  blond      173    marvel c~ <NA>       good     
## 10 agen~ male   brown     human brown      178    marvel c~ <NA>       good     
## # ... with 724 more rows, and 1 more variable: weight <chr>
```
…
```r
superhero_powers %>%
  select_all(~str_replace(., " ", "_")) %>%
  select_all(tolower) %>%
  mutate_all(tolower)
```

```
## # A tibble: 667 x 168
##    hero_names agility accelerated_hea~ `lantern_power ~ dimensional_awa~
##    <chr>      <chr>   <chr>            <chr>            <chr>           
##  1 3-d man    true    false            false            false           
##  2 a-bomb     false   true             false            false           
##  3 abe sapien true    true             false            false           
##  4 abin sur   false   false            true             false           
##  5 abominati~ false   true             false            false           
##  6 abraxas    false   false            false            true            
##  7 absorbing~ false   false            false            false           
##  8 adam monr~ false   true             false            false           
##  9 adam stra~ false   false            false            false           
## 10 agent bob  false   false            false            false           
## # ... with 657 more rows, and 163 more variables: cold_resistance <chr>,
## #   durability <chr>, stealth <chr>, energy_absorption <chr>, flight <chr>,
## #   danger_sense <chr>, underwater_breathing <chr>, marksmanship <chr>,
## #   weapons_master <chr>, power_augmentation <chr>, animal_attributes <chr>,
## #   longevity <chr>, intelligence <chr>, super_strength <chr>,
## #   cryokinesis <chr>, telepathy <chr>, energy_armor <chr>,
## #   energy_blasts <chr>, duplication <chr>, size_changing <chr>,
## #   density_control <chr>, stamina <chr>, astral_travel <chr>,
## #   audio_control <chr>, dexterity <chr>, omnitrix <chr>, super_speed <chr>,
…
```
## The following objects are masked from 'package:stats':
## 
##     chisq.test, fisher.test
```

The `clean_names` function takes care of everything in one line! Now that's a superpower!

```r
superhero_powers <- janitor::clean_names(superhero_powers)
superhero_powers
```

```
## # A tibble: 667 x 168
##    hero_names agility accelerated_hea~ lantern_power_r~ dimensional_awa~
##    <chr>      <lgl>   <lgl>            <lgl>            <lgl>           
##  1 3-D Man    TRUE    FALSE            FALSE            FALSE           
##  2 A-Bomb     FALSE   TRUE             FALSE            FALSE           
##  3 Abe Sapien TRUE    TRUE             FALSE            FALSE           
##  4 Abin Sur   FALSE   FALSE            TRUE             FALSE           
##  5 Abominati~ FALSE   TRUE             FALSE            FALSE           
##  6 Abraxas    FALSE   FALSE            FALSE            TRUE            
##  7 Absorbing~ FALSE   FALSE            FALSE            FALSE           
##  8 Adam Monr~ FALSE   TRUE             FALSE            FALSE           
##  9 Adam Stra~ FALSE   FALSE            FALSE            FALSE           
## 10 Agent Bob  FALSE   FALSE            FALSE            FALSE           
## # ... with 657 more rows, and 163 more variables: cold_resistance <lgl>,
## #   durability <lgl>, stealth <lgl>, energy_absorption <lgl>, flight <lgl>,
## #   danger_sense <lgl>, underwater_breathing <lgl>, marksmanship <lgl>,
## #   weapons_master <lgl>, power_augmentation <lgl>, animal_attributes <lgl>,
## #   longevity <lgl>, intelligence <lgl>, super_strength <lgl>,
## #   cryokinesis <lgl>, telepathy <lgl>, energy_armor <lgl>,
## #   energy_blasts <lgl>, duplication <lgl>, size_changing <lgl>,
## #   density_control <lgl>, stamina <lgl>, astral_travel <lgl>,
## #   audio_control <lgl>, dexterity <lgl>, omnitrix <lgl>, super_speed <lgl>,
…
## `tabyl`
The `janitor` package has many awesome functions that we will explore. Here is its version of `table` which not only produces counts but also percentages. Very handy! Let's use it to explore the proportion of good guys and bad guys in the `superhero_info` data.  

```r
superhero_info <- janitor::clean_names(superhero_info)
superhero_info
```

```
## # A tibble: 734 x 10
##    name  gender eye_color race  hair_color height publisher skin_color alignment
##    <chr> <chr>  <chr>     <chr> <chr>       <dbl> <chr>     <chr>      <chr>    
##  1 A-Bo~ Male   yellow    Human No Hair       203 Marvel C~ <NA>       good     
##  2 Abe ~ Male   blue      Icth~ No Hair       191 Dark Hor~ blue       good     
##  3 Abin~ Male   blue      Unga~ No Hair       185 DC Comics red        good     
##  4 Abom~ Male   green     Huma~ No Hair       203 Marvel C~ <NA>       bad      
##  5 Abra~ Male   blue      Cosm~ Black          NA Marvel C~ <NA>       bad      
##  6 Abso~ Male   blue      Human No Hair       193 Marvel C~ <NA>       bad      
##  7 Adam~ Male   blue      <NA>  Blond          NA NBC - He~ <NA>       good     
##  8 Adam~ Male   blue      Human Blond         185 DC Comics <NA>       good     
##  9 Agen~ Female blue      <NA>  Blond         173 Marvel C~ <NA>       good     
## 10 Agen~ Male   brown     Human Brown         178 Marvel C~ <NA>       good     
## # ... with 724 more rows, and 1 more variable: weight <dbl>
```
…
2. Notice that we have some neutral superheros! Who are they?

```r
superhero_info %>%
  select(name, alignment) %>%
  filter(alignment == "neutral")
```

```
## # A tibble: 24 x 2
##    name         alignment
##    <chr>        <chr>    
##  1 Bizarro      neutral  
##  2 Black Flash  neutral  
##  3 Captain Cold neutral  
##  4 Copycat      neutral  
##  5 Deadpool     neutral  
##  6 Deathstroke  neutral  
##  7 Etrigan      neutral  
##  8 Galactus     neutral  
##  9 Gladiator    neutral  
## 10 Indigo       neutral  
## # ... with 14 more rows
```

## `superhero_info`
3. Let's say we are only interested in the variables name, alignment, and "race". How would you isolate these variables from `superhero_info`?

```r
superhero_info_new <- superhero_info%>%
  select(name, alignment, race)
superhero_info_new
```

```
## # A tibble: 734 x 3
##    name          alignment race             
##    <chr>         <chr>     <chr>            
##  1 A-Bomb        good      Human            
##  2 Abe Sapien    good      Icthyo Sapien    
##  3 Abin Sur      good      Ungaran          
##  4 Abomination   bad       Human / Radiation
##  5 Abraxas       bad       Cosmic Entity    
##  6 Absorbing Man bad       Human            
##  7 Adam Monroe   good      <NA>             
##  8 Adam Strange  good      Human            
##  9 Agent 13      good      <NA>             
## 10 Agent Bob     good      Human            
## # ... with 724 more rows
```

## Not Human
4. List all of the superheros that are not human.

```r
superhero_info_new %>%
  filter(race !="Human")
```

```
## # A tibble: 222 x 3
##    name         alignment race             
##    <chr>        <chr>     <chr>            
##  1 Abe Sapien   good      Icthyo Sapien    
##  2 Abin Sur     good      Ungaran          
##  3 Abomination  bad       Human / Radiation
##  4 Abraxas      bad       Cosmic Entity    
##  5 Ajax         bad       Cyborg           
##  6 Alien        bad       Xenomorph XX121  
##  7 Amazo        bad       Android          
##  8 Angel        good      Vampire          
##  9 Angel Dust   good      Mutant           
## 10 Anti-Monitor bad       God / Eternal    
## # ... with 212 more rows
```

## Good and Evil
5. Let's make two different data frames, one focused on the "good guys" and another focused on the "bad guys".

```r
good_guys <- superhero_info %>%
  filter(alignment == "good")
good_guys
```

```
## # A tibble: 496 x 10
##    name  gender eye_color race  hair_color height publisher skin_color alignment
##    <chr> <chr>  <chr>     <chr> <chr>       <dbl> <chr>     <chr>      <chr>    
##  1 A-Bo~ Male   yellow    Human No Hair       203 Marvel C~ <NA>       good     
##  2 Abe ~ Male   blue      Icth~ No Hair       191 Dark Hor~ blue       good     
##  3 Abin~ Male   blue      Unga~ No Hair       185 DC Comics red        good     
##  4 Adam~ Male   blue      <NA>  Blond          NA NBC - He~ <NA>       good     
##  5 Adam~ Male   blue      Human Blond         185 DC Comics <NA>       good     
##  6 Agen~ Female blue      <NA>  Blond         173 Marvel C~ <NA>       good     
##  7 Agen~ Male   brown     Human Brown         178 Marvel C~ <NA>       good     
##  8 Agen~ Male   <NA>      <NA>  <NA>          191 Marvel C~ <NA>       good     
##  9 Alan~ Male   blue      <NA>  Blond         180 DC Comics <NA>       good     
## 10 Alex~ Male   <NA>      <NA>  <NA>           NA NBC - He~ <NA>       good     
## # ... with 486 more rows, and 1 more variable: weight <dbl>
```

```r
bad_guys <- superhero_info %>% 
  filter(alignment == "bad")
bad_guys
```

```
## # A tibble: 207 x 10
##    name  gender eye_color race  hair_color height publisher skin_color alignment
##    <chr> <chr>  <chr>     <chr> <chr>       <dbl> <chr>     <chr>      <chr>    
##  1 Abom~ Male   green     Huma~ No Hair       203 Marvel C~ <NA>       bad      
##  2 Abra~ Male   blue      Cosm~ Black          NA Marvel C~ <NA>       bad      
##  3 Abso~ Male   blue      Human No Hair       193 Marvel C~ <NA>       bad      
##  4 Air-~ Male   blue      <NA>  White         188 Marvel C~ <NA>       bad      
##  5 Ajax  Male   brown     Cybo~ Black         193 Marvel C~ <NA>       bad      
##  6 Alex~ Male   <NA>      Human <NA>           NA Wildstorm <NA>       bad      
##  7 Alien Male   <NA>      Xeno~ No Hair       244 Dark Hor~ black      bad      
##  8 Amazo Male   red       Andr~ <NA>          257 DC Comics <NA>       bad      
##  9 Ammo  Male   brown     Human Black         188 Marvel C~ <NA>       bad      
## 10 Ange~ Female <NA>      <NA>  <NA>           NA Image Co~ <NA>       bad      
## # ... with 197 more rows, and 1 more variable: weight <dbl>
```
…
## Height to Weight Ratio
13. It's easy to be strong when you are heavy and tall, but who is heavy and short? Which superheros have the highest height to weight ratio?
**Giganta.**

```r
superhero_info %>%
  mutate(height_to_weight_ratio = height/weight) %>%
  select(name, height_to_weight_ratio) %>%
  arrange(height_to_weight_ratio)
```

```
## # A tibble: 734 x 2
##    name        height_to_weight_ratio
##    <chr>                        <dbl>
##  1 Giganta                     0.0992
##  2 Utgard-Loki                 0.262 
##  3 Darkseid                    0.327 
##  4 Juggernaut                  0.336 
##  5 Red Hulk                    0.338 
##  6 Sasquatch                   0.339 
##  7 Hulk                        0.387 
##  8 Bloodaxe                    0.440 
##  9 Thanos                      0.454 
## 10 A-Bomb                      0.460 
## # ... with 724 more rows
```
…
14. How many superheros have a combination of accelerated healing, durability, and super strength?
**There are 97 rows, so 97 superheros have a combination of all three powers.**

```r
superhero_powers %>%
  filter(accelerated_healing == TRUE & durability == TRUE & super_strength == TRUE)
```

```
## # A tibble: 97 x 168
##    hero_names agility accelerated_hea~ lantern_power_r~ dimensional_awa~
##    <chr>      <lgl>   <lgl>            <lgl>            <lgl>           
##  1 A-Bomb     FALSE   TRUE             FALSE            FALSE           
##  2 Abe Sapien TRUE    TRUE             FALSE            FALSE           
##  3 Angel      TRUE    TRUE             FALSE            FALSE           
##  4 Anti-Moni~ FALSE   TRUE             FALSE            TRUE            
##  5 Anti-Venom FALSE   TRUE             FALSE            FALSE           
##  6 Aquaman    TRUE    TRUE             FALSE            FALSE           
##  7 Arachne    TRUE    TRUE             FALSE            FALSE           
##  8 Archangel  TRUE    TRUE             FALSE            FALSE           
##  9 Ardina     TRUE    TRUE             FALSE            FALSE           
## 10 Ares       TRUE    TRUE             FALSE            FALSE           
## # ... with 87 more rows, and 163 more variables: cold_resistance <lgl>,
## #   durability <lgl>, stealth <lgl>, energy_absorption <lgl>, flight <lgl>,
## #   danger_sense <lgl>, underwater_breathing <lgl>, marksmanship <lgl>,
## #   weapons_master <lgl>, power_augmentation <lgl>, animal_attributes <lgl>,
## #   longevity <lgl>, intelligence <lgl>, super_strength <lgl>,
## #   cryokinesis <lgl>, telepathy <lgl>, energy_armor <lgl>,
## #   energy_blasts <lgl>, duplication <lgl>, size_changing <lgl>,
## #   density_control <lgl>, stamina <lgl>, astral_travel <lgl>,
## #   audio_control <lgl>, dexterity <lgl>, omnitrix <lgl>, super_speed <lgl>,
…
## `kinesis`
15. We are only interested in the superheros that do some kind of "kinesis". How would we isolate them from the `superhero_powers` data?

```r
kinesis <- superhero_powers %>% 
  select(hero_names, contains("kinesis")) %>%
  filter_all(any_vars(.=="TRUE"))
kinesis
```

```
## # A tibble: 112 x 10
##    hero_names cryokinesis electrokinesis telekinesis hyperkinesis hypnokinesis
##    <chr>      <lgl>       <lgl>          <lgl>       <lgl>        <lgl>       
##  1 Alan Scott FALSE       FALSE          FALSE       FALSE        TRUE        
##  2 Amazo      TRUE        FALSE          FALSE       FALSE        FALSE       
##  3 Apocalypse FALSE       FALSE          TRUE        FALSE        FALSE       
##  4 Aqualad    TRUE        FALSE          FALSE       FALSE        FALSE       
##  5 Beyonder   FALSE       FALSE          TRUE        FALSE        FALSE       
##  6 Bizarro    TRUE        FALSE          FALSE       FALSE        TRUE        
##  7 Black Abb~ FALSE       FALSE          TRUE        FALSE        FALSE       
##  8 Black Adam FALSE       FALSE          TRUE        FALSE        FALSE       
##  9 Black Lig~ FALSE       TRUE           FALSE       FALSE        FALSE       
## 10 Black Mam~ FALSE       FALSE          FALSE       FALSE        TRUE        
## # ... with 102 more rows, and 4 more variables: thirstokinesis <lgl>,
## #   biokinesis <lgl>, terrakinesis <lgl>, vitakinesis <lgl>
```
…
