…
```r
fisheries
```

```
## # A tibble: 17,692 x 71
##    Country `Common name` `ISSCAAP group#` `ISSCAAP taxono~ `ASFIS species#`
##    <chr>   <chr>                    <dbl> <chr>            <chr>           
##  1 Albania Angelsharks,~               38 Sharks, rays, c~ 10903XXXXX      
##  2 Albania Atlantic bon~               36 Tunas, bonitos,~ 1750100101      
##  3 Albania Barracudas n~               37 Miscellaneous p~ 17710001XX      
##  4 Albania Blue and red~               45 Shrimps, prawns  2280203101      
##  5 Albania Blue whiting~               32 Cods, hakes, ha~ 1480403301      
##  6 Albania Bluefish                    37 Miscellaneous p~ 1702021301      
##  7 Albania Bogue                       33 Miscellaneous c~ 1703926101      
##  8 Albania Caramote pra~               45 Shrimps, prawns  2280100117      
##  9 Albania Catsharks, n~               38 Sharks, rays, c~ 10801003XX      
## 10 Albania Common cuttl~               57 Squids, cuttlef~ 3210200202      
## # ... with 17,682 more rows, and 66 more variables: `ASFIS species name` <chr>,
## #   `FAO major fishing area` <dbl>, Measure <chr>, `1950` <chr>, `1951` <chr>,
## #   `1952` <chr>, `1953` <chr>, `1954` <chr>, `1955` <chr>, `1956` <chr>,
## #   `1957` <chr>, `1958` <chr>, `1959` <chr>, `1960` <chr>, `1961` <chr>,
## #   `1962` <chr>, `1963` <chr>, `1964` <chr>, `1965` <chr>, `1966` <chr>,
## #   `1967` <chr>, `1968` <chr>, `1969` <chr>, `1970` <chr>, `1971` <chr>,
## #   `1972` <chr>, `1973` <chr>, `1974` <chr>, `1975` <chr>, `1976` <chr>,
## #   `1977` <chr>, `1978` <chr>, `1979` <chr>, `1980` <chr>, `1981` <chr>,
## #   `1982` <chr>, `1983` <chr>, `1984` <chr>, `1985` <chr>, `1986` <chr>,
…
```
## [1] TRUE
```

2. Use `janitor` to rename the columns and make them easier to use. As part of this cleaning step, change `country`, `isscaap_group_number`, `asfis_species_number`, and `fao_major_fishing_area` to data class factor. 

```r
fisheries <- janitor::clean_names(fisheries)
fisheries
```

```
## # A tibble: 17,692 x 71
##    country common_name isscaap_group_n~ isscaap_taxonom~ asfis_species_n~
##    <chr>   <chr>                  <dbl> <chr>            <chr>           
##  1 Albania Angelshark~               38 Sharks, rays, c~ 10903XXXXX      
##  2 Albania Atlantic b~               36 Tunas, bonitos,~ 1750100101      
##  3 Albania Barracudas~               37 Miscellaneous p~ 17710001XX      
##  4 Albania Blue and r~               45 Shrimps, prawns  2280203101      
##  5 Albania Blue whiti~               32 Cods, hakes, ha~ 1480403301      
##  6 Albania Bluefish                  37 Miscellaneous p~ 1702021301      
##  7 Albania Bogue                     33 Miscellaneous c~ 1703926101      
##  8 Albania Caramote p~               45 Shrimps, prawns  2280100117      
##  9 Albania Catsharks,~               38 Sharks, rays, c~ 10801003XX      
## 10 Albania Common cut~               57 Squids, cuttlef~ 3210200202      
## # ... with 17,682 more rows, and 66 more variables: asfis_species_name <chr>,
## #   fao_major_fishing_area <dbl>, measure <chr>, x1950 <chr>, x1951 <chr>,
## #   x1952 <chr>, x1953 <chr>, x1954 <chr>, x1955 <chr>, x1956 <chr>,
## #   x1957 <chr>, x1958 <chr>, x1959 <chr>, x1960 <chr>, x1961 <chr>,
## #   x1962 <chr>, x1963 <chr>, x1964 <chr>, x1965 <chr>, x1966 <chr>,
## #   x1967 <chr>, x1968 <chr>, x1969 <chr>, x1970 <chr>, x1971 <chr>,
## #   x1972 <chr>, x1973 <chr>, x1974 <chr>, x1975 <chr>, x1976 <chr>,
## #   x1977 <chr>, x1978 <chr>, x1979 <chr>, x1980 <chr>, x1981 <chr>,
## #   x1982 <chr>, x1983 <chr>, x1984 <chr>, x1985 <chr>, x1986 <chr>,
…
4. Refocus the data to include only: country, isscaap_taxonomic_group, asfis_species_name, asfis_species_number, year, catch.

```r
fisheries_refocused <- fisheries_tidy %>%
  select(country, isscaap_taxonomic_group, asfis_species_name, asfis_species_number, year, catch)
fisheries_refocused  
```

```
## # A tibble: 376,771 x 6
##    country isscaap_taxonomic_g~ asfis_species_na~ asfis_species_num~  year catch
##    <fct>   <chr>                <chr>             <fct>              <dbl> <dbl>
##  1 Albania Sharks, rays, chima~ Squatinidae       10903XXXXX          1995    NA
##  2 Albania Sharks, rays, chima~ Squatinidae       10903XXXXX          1996    53
##  3 Albania Sharks, rays, chima~ Squatinidae       10903XXXXX          1997    20
##  4 Albania Sharks, rays, chima~ Squatinidae       10903XXXXX          1998    31
##  5 Albania Sharks, rays, chima~ Squatinidae       10903XXXXX          1999    30
##  6 Albania Sharks, rays, chima~ Squatinidae       10903XXXXX          2000    30
##  7 Albania Sharks, rays, chima~ Squatinidae       10903XXXXX          2001    16
##  8 Albania Sharks, rays, chima~ Squatinidae       10903XXXXX          2002    79
##  9 Albania Sharks, rays, chima~ Squatinidae       10903XXXXX          2003     1
## 10 Albania Sharks, rays, chima~ Squatinidae       10903XXXXX          2004     4
## # ... with 376,761 more rows
```
…
```r
fisheries_tidy %>% 
  filter(year==2000) %>%
  group_by(country) %>% 
  summarize(catch_total=sum(catch, na.rm=T)) %>% 
  arrange(desc(catch_total))
```

```
## `summarise()` ungrouping output (override with `.groups` argument)
```

```
## # A tibble: 193 x 2
##    country                  catch_total
##    <fct>                          <dbl>
##  1 China                          25899
##  2 Russian Federation             12181
##  3 United States of America       11762
##  4 Japan                           8510
##  5 Indonesia                       8341
##  6 Peru                            7443
##  7 Chile                           6906
##  8 India                           6351
##  9 Thailand                        6243
## 10 Korea, Republic of              6124
## # ... with 183 more rows
```
…
```r
fisheries_tidy %>%
  filter(between(year, 1990,2000)) %>%
  filter(asfis_species_name == "Sardina pilchardus") %>%
  group_by(country) %>%
  summarize(catch_total = sum(catch, na.rm = T)) %>%
  arrange(desc(catch_total))
```

```
## `summarise()` ungrouping output (override with `.groups` argument)
```

```
## # A tibble: 37 x 2
##    country               catch_total
##    <fct>                       <dbl>
##  1 Morocco                      7470
##  2 Spain                        3507
##  3 Russian Federation           1639
##  4 Ukraine                      1030
##  5 France                        966
##  6 Portugal                      818
##  7 Greece                        528
##  8 Italy                         507
##  9 Serbia and Montenegro         478
## 10 Denmark                       477
## # ... with 27 more rows
```
…
```r
fisheries_tidy %>%
  filter(isscaap_taxonomic_group == "Squids, cuttlefishes, octopuses") %>%
  filter(between(year, 2008, 2012)) %>%
  group_by(country) %>%
  summarize(catch_total = sum(catch, na.rm = T)) %>%
  arrange(desc(catch_total))
```

```
## `summarise()` ungrouping output (override with `.groups` argument)
```

```
## # A tibble: 122 x 2
##    country                  catch_total
##    <fct>                          <dbl>
##  1 China                           8349
##  2 Korea, Republic of              3480
##  3 Peru                            3422
##  4 Japan                           3248
##  5 Chile                           2775
##  6 United States of America        2417
##  7 Indonesia                       1622
##  8 Taiwan Province of China        1394
##  9 Spain                           1147
## 10 France                          1138
## # ... with 112 more rows
```
…
```r
fisheries_tidy%>%
  filter(between(year, 2008, 2012)) %>%
  group_by(asfis_species_name) %>%
  summarize(highest_catch_total = sum(catch, na.rm = T)) %>%
  arrange(desc(highest_catch_total))
```

```
## `summarise()` ungrouping output (override with `.groups` argument)
```

```
## # A tibble: 1,472 x 2
##    asfis_species_name    highest_catch_total
##    <chr>                               <dbl>
##  1 Osteichthyes                       107808
##  2 Theragra chalcogramma               41075
##  3 Engraulis ringens                   35523
##  4 Katsuwonus pelamis                  32153
##  5 Trichiurus lepturus                 30400
##  6 Clupea harengus                     28527
##  7 Thunnus albacares                   20119
##  8 Scomber japonicus                   14723
##  9 Gadus morhua                        13253
## 10 Thunnus alalunga                    12019
## # ... with 1,462 more rows
```
…
